%YAML 1.1
%TAG !u! tag:unity3d.com,2011:
--- !u!114 &11400000
MonoBehaviour:
  m_ObjectHideFlags: 0
  m_CorrespondingSourceObject: {fileID: 0}
  m_PrefabInstance: {fileID: 0}
  m_PrefabAsset: {fileID: 0}
  m_GameObject: {fileID: 0}
  m_Enabled: 1
  m_EditorHideFlags: 0
  m_Script: {fileID: 11500000, guid: 8bda34d869704bb1ae8fab334b87b63c, type: 3}
  m_Name: ExperienceGameConfigSO
  m_EditorClassIdentifier: 
  <WinReward>k__BackingField: 1
  <LootType>k__BackingField: 0
  <TargetScore>k__BackingField:
    <Min>k__BackingField: 4
    <Max>k__BackingField: 6
  <ScoreStep>k__BackingField: 1
